<svg width="245" height="75" viewBox="0 0 245 75" fill="none" xmlns="http://www.w3.org/2000/svg">
<path fill-rule="evenodd" clip-rule="evenodd" d="M113.028 2.37027C103.928 2.13847 90.8119 3.57129 79.8559 5.36559C72.0545 6.64327 63.8714 8.53774 56.3941 10.6434C56.6552 10.6844 56.9154 10.7282 57.174 10.7749C59.668 11.2256 62.1456 11.9712 64.0061 13.2447C65.9197 14.5547 67.2247 16.4676 67.1291 19.1065C67.0985 19.9511 66.7445 20.7284 66.2502 21.4164C65.7548 22.1059 65.0731 22.7698 64.2731 23.4094C62.6742 24.6877 60.4553 25.9842 57.8701 27.2776C52.6903 29.8692 45.8175 32.5567 38.9385 35.1357C37.0625 35.839 35.1865 36.5341 33.3417 37.2177C31.5729 37.873 29.8329 38.5178 28.1491 39.1489C27.8588 40.0212 27.5453 40.9261 27.2069 41.8612C36.2851 38.5275 46.8718 34.9598 57.6131 31.3986C60.6411 30.3947 63.6816 29.3913 66.7048 28.3935C78.234 24.5886 89.5132 20.8661 98.9013 17.5142C104.826 15.3987 109.975 13.4386 113.946 11.7057C115.931 10.8391 117.606 10.0363 118.928 9.30605C120.269 8.56541 121.174 7.93796 121.68 7.43808C122.874 6.25864 123.223 5.47127 123.257 5.03222C123.279 4.74903 123.184 4.4021 122.492 3.97746C121.765 3.53188 120.58 3.14711 118.924 2.86614C117.291 2.58908 115.298 2.4281 113.028 2.37027ZM26.1096 44.7667C35.5426 41.2528 46.8321 37.4431 58.3457 33.626C61.3646 32.6251 64.3988 31.6237 67.4182 30.6273C78.9509 26.8211 90.2667 23.0867 99.6841 19.7242C105.626 17.6028 110.834 15.6218 114.877 13.8569C116.899 12.9747 118.645 12.1395 120.054 11.3611C121.444 10.5931 122.579 9.84129 123.319 9.10971C124.618 7.82621 125.485 6.52691 125.587 5.21405C125.7 3.74533 124.85 2.67509 123.71 1.97577C122.604 1.29739 121.07 0.851403 119.313 0.553289C117.533 0.251261 115.421 0.0848287 113.087 0.0253722C103.769 -0.211969 90.485 1.24818 79.4798 3.05054C69.5194 4.6818 58.9634 7.30219 49.9962 10.0923C48.2031 10.037 46.6149 10.0532 45.4684 10.0649C45.0816 10.0688 44.7451 10.0722 44.4679 10.0722C42.1941 10.0722 37.3024 10.5135 32.4551 11.5442C30.0269 12.0605 27.5741 12.7321 25.4475 13.5867C23.3478 14.4306 21.4414 15.5012 20.2292 16.8805C17.9129 19.5161 17.4682 22.2956 18.074 24.7771C18.6625 27.1876 20.2128 29.2193 21.7308 30.5741C22.213 31.0044 22.9513 30.9608 23.3799 30.4767C23.8086 29.9926 23.7651 29.2513 23.2829 28.8209C21.9974 27.6737 20.7854 26.0305 20.3431 24.2188C19.9182 22.4781 20.1744 20.4881 21.981 18.4324C22.8302 17.4661 24.3298 16.5625 26.3157 15.7644C28.2747 14.9771 30.5872 14.339 32.9392 13.8389C36.6687 13.0459 40.4076 12.6181 42.84 12.4741C39.817 13.5537 37.1079 14.6275 34.8368 15.6506C33.1883 16.3933 31.7556 17.1159 30.5948 17.8017C29.4516 18.4773 28.5032 19.1567 27.8809 19.8296C27.2419 20.5206 26.8475 21.2879 26.7348 22.1156C26.6227 22.9387 26.8038 23.7132 27.1311 24.3988C27.5475 25.2713 28.23 26.0625 28.9957 26.7554C28.865 27.4798 28.6829 28.4031 28.4347 29.5051C27.9745 31.549 27.2872 34.2065 26.2792 37.3471C23.6244 38.3478 21.1202 39.315 18.8882 40.2329C16.1913 41.342 13.8494 42.396 12.0957 43.3676C11.22 43.8528 10.4596 44.3345 9.86536 44.8108C9.29859 45.2652 8.75806 45.8114 8.49687 46.4583C8.25412 47.0595 8.2049 47.7562 8.57342 48.4C8.7573 48.7213 9.01084 48.9665 9.28618 49.1557C7.79292 49.871 6.45773 50.5622 5.30369 51.2254C3.75062 52.1179 2.47239 52.9895 1.57262 53.8344C0.726004 54.6295 -0.0352947 55.6316 0.00126515 56.7879C0.0559409 58.5171 1.01289 59.7482 2.43818 60.5186C3.79463 61.2518 5.61438 61.6017 7.65118 61.7269C11.7476 61.9787 17.248 61.3445 23.0669 60.3806C28.1802 59.5335 33.6182 58.4176 38.6766 57.3795C39.0381 57.3053 39.3977 57.2315 39.755 57.1582C38.572 58.2351 37.1791 59.2688 35.7044 60.2491C33.6948 61.585 31.588 62.7868 29.7294 63.847L29.5007 63.9774C27.6457 65.0359 25.9425 66.0105 25.0174 66.8066C24.5754 67.187 24.1544 67.6321 23.9563 68.1462C23.8473 68.429 23.7844 68.7898 23.8868 69.1772C23.991 69.5711 24.2296 69.8547 24.4759 70.0411C24.9114 70.3705 25.4648 70.4719 25.8744 70.5133C26.3319 70.5594 26.8525 70.5504 27.3876 70.5082C29.494 70.3424 32.4403 69.6084 34.2232 68.7559C34.8057 68.4775 35.053 67.7776 34.7757 67.1928C34.4983 66.608 33.8013 66.3597 33.2188 66.6381C31.7309 67.3495 29.0701 68.0229 27.2049 68.1698C27.1589 68.1734 27.1137 68.1767 27.0694 68.1796C27.8678 67.617 29.1022 66.9028 30.6551 66.0168C30.7364 65.9703 30.8185 65.9235 30.9012 65.8764C32.7473 64.8234 34.9161 63.5863 36.9942 62.2049C39.1596 60.7654 41.286 59.131 42.8812 57.3264C43.1574 57.0139 43.4208 56.6928 43.6675 56.3632C48.1448 55.4663 52.0514 54.7471 54.8586 54.4779C57.2911 54.2447 60.0984 54.0066 63.0406 53.788C62.8545 54.3206 62.667 54.8515 62.4797 55.3819C62.165 56.2731 61.8509 57.1627 61.5449 58.0557C61.141 59.2344 60.7553 60.4086 60.4144 61.5696C55.3892 63.3482 50.7158 65.1742 47.5107 66.8498C45.7975 67.7455 44.3549 68.672 43.5429 69.6149C43.1354 70.0881 42.7568 70.7139 42.7562 71.4566C42.7554 72.2667 43.1976 72.8903 43.7592 73.3207C44.3033 73.7376 45.0192 74.0227 45.7888 74.2325C46.5752 74.4468 47.507 74.6058 48.5496 74.7222C50.6348 74.9551 53.2656 75.0286 56.2663 74.9905C62.2726 74.9142 69.8908 74.3881 77.8553 73.7332C81.6987 73.4171 85.6191 73.0716 89.482 72.7311C101.698 71.6544 113.339 70.6284 120.143 70.7462C121.951 70.7775 123.424 70.8094 124.614 70.8433C124.597 70.8605 124.582 70.8779 124.566 70.8956C124.353 71.1388 124.131 71.5114 124.126 71.9974C124.121 72.4876 124.337 72.8814 124.579 73.1593C124.794 73.4071 125.053 73.5218 125.201 73.5761C125.367 73.6368 125.535 73.6713 125.68 73.6932C125.972 73.7371 126.317 73.7501 126.683 73.7467C127.424 73.7397 128.417 73.6625 129.608 73.5309C131.998 73.2667 135.303 72.7695 139.232 72.1047C147.096 70.7741 157.528 68.7598 168.282 66.5539C178.996 64.3562 190.065 61.9614 199.251 59.8577C199.683 59.9118 200.109 59.965 200.529 60.0171C205.105 60.5862 208.888 61.0383 211.528 61.3481C212.848 61.503 213.882 61.6223 214.586 61.703C214.938 61.7433 215.208 61.774 215.39 61.7945C215.481 61.8048 215.549 61.8126 215.596 61.8178L215.665 61.8256C215.665 61.8256 215.666 61.8257 215.795 60.6601L215.666 61.8257C216.307 61.8975 216.885 61.4339 216.956 60.7901C217.028 60.1464 216.566 59.5663 215.925 59.4945L215.795 60.6601C215.925 59.4945 215.924 59.4945 215.924 59.4944L215.651 59.4637C215.471 59.4432 215.202 59.4127 214.851 59.3724C214.149 59.292 213.117 59.1729 211.799 59.0183C210.214 58.8323 208.216 58.5948 205.88 58.3114C211.93 56.8711 216.603 55.6639 218.96 54.8949C225.229 52.8493 229.913 50.8518 233.812 48.1141C237.728 45.364 240.786 41.9131 243.88 37.0534C244.776 35.6476 245.127 34.1519 244.959 32.6299C244.794 31.1291 244.133 29.6846 243.142 28.3289C241.173 25.6374 237.761 23.103 233.549 20.8796C225.098 16.4177 212.985 12.9788 201.241 12.1083C179.037 10.4626 149.856 17.37 137.509 20.2926C136.83 20.4534 136.202 20.6021 135.628 20.7366C130.074 22.0404 120.269 24.8217 113.269 28.3834C111.512 29.2773 109.905 30.2336 108.576 31.2453C107.256 32.2496 106.149 33.3534 105.464 34.5606C104.763 35.7972 104.493 37.1708 104.93 38.5915C105.355 39.9711 106.393 41.2225 107.945 42.3701C109.569 43.5708 112.507 44.7168 116.219 45.8234C119.981 46.9453 124.698 48.0705 130.006 49.175C140.626 51.3846 153.686 53.5264 166.369 55.3992C175.614 56.7644 184.666 57.9879 192.439 58.9917C184.744 60.7069 176.186 62.5385 167.814 64.2557C157.072 66.4592 146.67 68.4675 138.844 69.7917C135.211 70.4063 132.149 70.871 129.871 71.1399C129.968 71.0771 130.161 70.9364 130.302 70.6952C130.396 70.5344 130.485 70.2985 130.47 70.0097C130.455 69.7166 130.339 69.4822 130.213 69.3199C129.999 69.045 129.725 68.9326 129.634 68.8968C129.505 68.8455 129.375 68.8127 129.268 68.7899C129.049 68.7435 128.777 68.7085 128.462 68.679C127.209 68.5613 124.686 68.4789 120.184 68.4009C113.244 68.2808 101.405 69.3246 89.1509 70.405C85.317 70.7431 81.4425 71.0847 77.6646 71.3954C69.7034 72.0501 62.1553 72.5698 56.2368 72.645C53.2751 72.6826 50.7539 72.6083 48.8078 72.391C47.8347 72.2823 47.0311 72.1406 46.4009 71.9688C45.754 71.7924 45.3723 71.606 45.1766 71.456C45.1544 71.439 45.1365 71.4242 45.122 71.4114C45.1508 71.357 45.2059 71.2702 45.3102 71.1491C45.8075 70.5716 46.8959 69.8159 48.5897 68.9303C51.3371 67.494 55.2891 65.909 59.6988 64.3155C59.6345 64.6047 59.5745 64.8927 59.5193 65.1792C59.3967 65.8151 59.8107 66.4304 60.4441 66.5535C61.0775 66.6766 61.6904 66.2609 61.813 65.6249C61.9542 64.8924 62.1302 64.1441 62.3335 63.3804C62.3985 63.3577 62.4635 63.335 62.5286 63.3124C67.502 61.5805 72.777 59.8918 77.3542 58.4265C77.8501 58.2678 78.3378 58.1116 78.816 57.9584C83.651 56.4087 87.631 55.1173 89.2016 54.3703C89.5981 54.1818 90.0166 53.9439 90.3081 53.6254C90.4608 53.4585 90.656 53.186 90.7146 52.8098C90.7803 52.3886 90.6485 52.0119 90.4391 51.7363C90.2535 51.4921 90.0221 51.3425 89.8504 51.2515C89.6687 51.1554 89.4747 51.0838 89.2898 51.028C88.9208 50.9167 88.4757 50.8354 87.9917 50.7728C86.0693 50.5241 82.8569 50.4912 79.1134 50.5839C75.2666 50.6792 70.7763 50.9101 66.3775 51.2019C67.9726 46.2072 69.1793 40.8978 68.1995 35.7331C68.0788 35.0968 67.4671 34.6793 66.8334 34.8005C66.1996 34.9217 65.7837 35.5357 65.9044 36.172C66.7807 40.7907 65.6964 45.6908 64.0909 50.6788C64.0159 50.9118 63.94 51.1442 63.8635 51.3759C60.5414 51.6153 57.3557 51.8821 54.6365 52.1429C52.142 52.3821 48.8587 52.9552 45.1672 53.6754C45.4659 52.8604 45.6361 52.008 45.6361 51.1211C45.6361 49.55 44.6273 48.5265 43.3818 47.9213C42.1737 47.3343 40.5572 47.0291 38.7897 46.8741C35.2301 46.5618 30.5584 46.8246 26.067 47.1363C25.7496 47.1583 25.433 47.1806 25.1178 47.2029C25.4485 46.4167 25.78 45.6039 26.1096 44.7667ZM24.313 42.9355C24.4369 42.6117 24.5604 42.2845 24.6832 41.954C24.9022 41.3647 25.1113 40.787 25.3107 40.2216C23.3403 40.9736 21.4779 41.7027 19.7737 42.4036C17.0997 43.5033 14.8578 44.5164 13.2245 45.4213C12.4067 45.8744 11.7728 46.2833 11.3231 46.6439C10.9423 46.9491 10.7679 47.1616 10.6973 47.2738C10.7338 47.2925 10.7802 47.3139 10.8386 47.3371C11.2065 47.4837 11.7718 47.5962 12.5361 47.6677C14.2705 46.905 16.1536 46.1197 18.1609 45.316C20.0969 44.5408 22.1544 43.7461 24.313 42.9355ZM18.678 47.6346C18.7936 47.5881 18.9097 47.5415 19.0263 47.4948C20.3405 46.9686 21.7116 46.4331 23.1333 45.8895C22.9206 46.4008 22.7081 46.901 22.4965 47.3896C21.1696 47.483 19.8868 47.5692 18.678 47.6346ZM12.9419 50.0515C10.3773 51.193 8.19313 52.2676 6.46425 53.2611C4.97407 54.1175 3.87525 54.8838 3.16853 55.5475C2.40864 56.2611 2.33399 56.6383 2.33637 56.7135C2.35957 57.4472 2.70218 57.9973 3.54563 58.4532C4.45793 58.9463 5.87612 59.2677 7.79397 59.3856C10.2336 59.5356 13.2721 59.3471 16.6646 58.94C16.7841 58.7403 16.9385 58.4788 17.1232 58.1591C17.5997 57.3345 18.2775 56.1231 19.0766 54.586C19.7799 53.2332 20.5765 51.6294 21.4122 49.816C18.6569 50.0017 16.0781 50.1392 14.02 50.0946C13.652 50.0867 13.2914 50.0729 12.9419 50.0515ZM24.0645 49.6298C23.0185 51.9668 22.014 54.0051 21.1477 55.6714C20.5548 56.8119 20.0261 57.779 19.5926 58.5493C20.603 58.4021 21.6361 58.2402 22.6866 58.0662C27.7523 57.227 33.1427 56.1209 38.2057 55.082C38.9239 54.9346 39.6355 54.7886 40.3386 54.6448C40.9948 54.5107 41.6442 54.3785 42.2851 54.249C42.9493 53.1878 43.2998 52.145 43.2998 51.1211C43.2998 50.7766 43.1453 50.4123 42.3641 50.0327C41.5457 49.6351 40.2722 49.3587 38.5864 49.2108C35.2394 48.9172 30.7509 49.1625 26.2281 49.4764C25.5387 49.5242 24.8482 49.5737 24.1615 49.6229C24.1292 49.6252 24.0968 49.6275 24.0645 49.6298ZM65.5771 53.6068C65.2755 54.4841 64.9675 55.3566 64.6639 56.2166C64.3521 57.1001 64.0448 57.9703 63.7541 58.8187C63.5462 59.4256 63.3455 60.0245 63.1551 60.6152C67.7388 59.0427 72.4918 57.5211 76.6433 56.1921C77.1398 56.0332 77.6276 55.877 78.1056 55.7238C81.5862 54.6083 84.4857 53.6679 86.3805 52.9787C84.6049 52.865 82.1033 52.8562 79.171 52.9289C75.0823 53.0302 70.2488 53.2866 65.5771 53.6068ZM45.0677 71.3542C45.068 71.3542 45.0697 71.3564 45.0721 71.3608C45.0687 71.3564 45.0675 71.3541 45.0677 71.3542ZM199.132 57.4789C208.116 55.4176 215.2 53.6555 218.238 52.6641C224.429 50.644 228.856 48.732 232.473 46.192C236.072 43.6644 238.932 40.4692 241.912 35.7899C242.535 34.811 242.743 33.8486 242.637 32.8881C242.529 31.9064 242.083 30.844 241.258 29.7172C239.596 27.4437 236.544 25.1109 232.462 22.9558C224.326 18.6606 212.531 15.2972 201.069 14.4476C179.246 12.8301 150.389 19.6561 138.003 22.5858C137.341 22.7426 136.725 22.8882 136.16 23.0207C130.657 24.3124 121.071 27.0433 114.325 30.4757C112.646 31.3304 111.169 32.2151 109.987 33.1148C108.795 34.0217 107.961 34.8994 107.494 35.7215C107.045 36.5142 106.953 37.2177 107.162 37.8993C107.385 38.6221 108.001 39.4984 109.33 40.4814C110.588 41.4113 113.159 42.4643 116.884 43.5748C120.557 44.67 125.202 45.7799 130.481 46.8781C141.034 49.074 154.042 51.2081 166.709 53.0785C178.609 54.8359 190.193 56.3584 199.132 57.4789ZM29.0497 36.3097C30.2076 35.8785 31.3849 35.4423 32.5725 35.0023C34.4088 34.3219 36.2696 33.6324 38.1212 32.9382C45.0068 30.3568 51.7721 27.7079 56.8281 25.1782C59.3609 23.911 61.4092 22.7005 62.8178 21.5745C63.5214 21.0119 64.0284 20.4994 64.3555 20.0441C64.6836 19.5874 64.786 19.2517 64.7943 19.0213C64.8545 17.3598 64.0958 16.1452 62.6899 15.1828C61.2309 14.184 59.1333 13.5124 56.7601 13.0835C54.6167 12.6961 52.3552 12.523 50.3136 12.4496C49.4767 12.7118 48.6543 12.9753 47.8482 13.2396C43.1324 14.7854 38.9927 16.3494 35.7932 17.7907C34.1929 18.5116 32.8428 19.1952 31.7798 19.8233C30.6993 20.4617 29.983 21.0039 29.593 21.4257C29.2196 21.8294 29.0859 22.1664 29.0495 22.4334C29.0126 22.7049 29.0614 23.0153 29.238 23.3852C29.3517 23.6235 29.5097 23.8684 29.7064 24.1169C29.9424 23.9213 30.2543 23.8185 30.5824 23.856C31.2234 23.9293 31.6839 24.5104 31.6109 25.154L30.5867 25.0369C31.6108 25.154 31.6108 25.1543 31.6108 25.1545L31.6107 25.1552L31.6105 25.157L31.6099 25.1626C31.6093 25.1671 31.6086 25.1733 31.6077 25.1812C31.6058 25.1969 31.6031 25.2192 31.5994 25.2481C31.5922 25.3058 31.5812 25.3896 31.5661 25.4986C31.5544 25.5829 31.5402 25.6822 31.5232 25.7962C31.5502 25.8162 31.5773 25.8361 31.6045 25.856C32.7106 26.6637 33.9529 27.3543 34.9331 27.8476C35.4201 28.0926 35.8355 28.2855 36.1276 28.4165C36.2735 28.4819 36.3882 28.5317 36.4653 28.5647C36.5038 28.5812 36.5329 28.5934 36.5518 28.6013C36.5612 28.6052 36.568 28.6081 36.5722 28.6098L36.5764 28.6116L36.5766 28.6116C37.1739 28.8564 37.4605 29.541 37.2167 30.1407C36.9729 30.7404 36.291 31.0281 35.6937 30.7834L36.1352 29.6975C35.6937 30.7834 35.6934 30.7832 35.6931 30.7831L35.6897 30.7817L35.6816 30.7784C35.6748 30.7755 35.6653 30.7716 35.6531 30.7665C35.6289 30.7564 35.5942 30.7417 35.5499 30.7228C35.4612 30.6849 35.334 30.6296 35.1748 30.5582C34.8566 30.4155 34.4093 30.2077 33.8863 29.9446C33.0769 29.5373 32.0693 28.9889 31.073 28.3354C30.9713 28.8426 30.8523 29.406 30.7135 30.0223C30.3281 31.7336 29.7905 33.853 29.0497 36.3097Z" fill="black"/>
</svg>
