<svg width="47" height="46" viewBox="0 0 47 46" fill="none" xmlns="http://www.w3.org/2000/svg">
<g filter="url(#filter0_d)">
<path d="M23.5 3C18.8587 3 14.4075 4.84374 11.1256 8.12563C7.84374 11.4075 6 15.8587 6 20.5H6C6 25.1413 7.84374 29.5925 11.1256 32.8744C14.4075 36.1563 18.8587 38 23.5 38C28.1413 38 32.5925 36.1563 35.8744 32.8744C39.1563 29.5925 41 25.1413 41 20.5C41 15.8587 39.1563 11.4075 35.8744 8.12563C32.5925 4.84374 28.1413 3 23.5 3V3ZM32.25 20.535C32.253 20.7233 32.2179 20.9102 32.1469 21.0846C32.076 21.259 31.9706 21.4173 31.837 21.55L26.076 27.2935C25.9452 27.4245 25.79 27.5284 25.619 27.5994C25.4481 27.6704 25.2648 27.707 25.0797 27.7072C24.8946 27.7074 24.7113 27.6711 24.5403 27.6004C24.3692 27.5297 24.2137 27.426 24.0828 27.2952C23.9518 27.1645 23.8478 27.0092 23.7768 26.8383C23.7058 26.6673 23.6692 26.4841 23.6691 26.299C23.6689 26.1139 23.7052 25.9306 23.7759 25.7595C23.8466 25.5885 23.9502 25.433 24.081 25.302L27.455 21.9245H16.15C15.7787 21.9245 15.4226 21.777 15.1601 21.5144C14.8975 21.2519 14.75 20.8958 14.75 20.5245C14.75 20.1532 14.8975 19.7971 15.1601 19.5346C15.4226 19.272 15.7787 19.1245 16.15 19.1245H27.4865L24.081 15.719C23.8164 15.4544 23.6678 15.0956 23.6678 14.7215C23.6678 14.5362 23.7043 14.3528 23.7752 14.1817C23.8461 14.0105 23.95 13.855 24.081 13.724C24.212 13.593 24.3675 13.4891 24.5387 13.4182C24.7098 13.3473 24.8932 13.3108 25.0785 13.3108C25.4526 13.3108 25.8114 13.4594 26.076 13.724L31.837 19.4675C31.9684 19.5982 32.0726 19.7536 32.1435 19.9248C32.2144 20.0961 32.2506 20.2797 32.25 20.465V20.535Z" fill="white"/>
</g>
<defs>
<filter id="filter0_d" x="0.755498" y="0.377749" width="45.489" height="45.489" filterUnits="userSpaceOnUse" color-interpolation-filters="sRGB">
<feFlood flood-opacity="0" result="BackgroundImageFix"/>
<feColorMatrix in="SourceAlpha" type="matrix" values="0 0 0 0 0 0 0 0 0 0 0 0 0 0 0 0 0 0 127 0"/>
<feOffset dy="2.62225"/>
<feGaussianBlur stdDeviation="2.62225"/>
<feColorMatrix type="matrix" values="0 0 0 0 0 0 0 0 0 0 0 0 0 0 0 0 0 0 0.25 0"/>
<feBlend mode="normal" in2="BackgroundImageFix" result="effect1_dropShadow"/>
<feBlend mode="normal" in="SourceGraphic" in2="effect1_dropShadow" result="shape"/>
</filter>
</defs>
</svg>
